charge C au 6.24150911228e+18
charge C e 6.24150912588e+18
charge C electron 6.24150911228e+18
charge C gromacs 7.35692210256e+19
charge C lj 1.26325832781e+20
charge C metal 2.36845701371e+19
charge C real 1.13736620484e+20
charge C si 94802.699262
charge au C 1.60217662429e-19
charge au e 1.00000000218
charge e C 1.6021766208e-19
charge e au 0.999999997821
charge e electron 0.999999997821
charge e gromacs 11.7870885938
charge e lj 20.2396295886
charge e metal 3.79468645474
charge e real 18.2226154269
charge e si 1.51890668346e-14
charge electron C 1.60217662429e-19
charge electron e 1.00000000218
charge gromacs C 1.35926408634e-20
charge gromacs e 0.0848385919937
charge lj C 7.91603726635e-21
charge lj e 0.0494080188387
charge metal C 4.2221581148e-20
charge metal e 0.263526384045
charge real C 8.79224295343e-21
charge real e 0.0548768646308
charge si C 1.05482228648e-05
charge si e 6.58368292725e+13
energy J J/mol 6.022140857e+23
energy J au 2.29371230644e+17
energy J eV 6.24150909893e+18
energy J electron 2.29371230644e+17
energy J gromacs 6.022140857e+20
energy J hartree 2.29371230644e+17
energy J kJ/mol 6.022140857e+20
energy J kcal 0.000239005736138
energy J kcal/mol 1.43932620865e+20
energy J lj 6.04588734069e+20
energy J metal 6.24150909893e+18
energy J real 1.43932620865e+20
energy J si 1.0
energy J/mol J 1.66053904043e-24
energy J/mol au 3.80879883235e-07
energy J/mol eV 1.03642695299e-05
energy J/mol electron 3.80879883235e-07
energy J/mol gromacs 0.001
energy J/mol hartree 3.80879883235e-07
energy J/mol kJ/mol 0.001
energy J/mol kcal 3.96878355743e-28
energy J/mol kcal/mol 0.000239005736138
energy J/mol lj 0.00100394319632
energy J/mol metal 1.03642695299e-05
energy J/mol real 0.000239005736138
energy J/mol si 1.66053904043e-24
energy au J 4.35974466891e-18
energy au J/mol 2625499.64967
energy au eV 27.21138602
energy au hartree 1.0
energy au kJ/mol 2625.49964967
energy au kcal 1.04200398397e-21
energy au kcal/mol 627.509476499
energy eV J 1.60217662772e-19
energy eV J/mol 96485.3332992
energy eV au 0.0367493224809
energy eV electron 0.0367493224809
energy eV gromacs 96.4853332992
energy eV hartree 0.0367493224809
energy eV kJ/mol 96.4853332992
energy eV kcal 3.82929404331e-23
energy eV kcal/mol 23.0605481117
energy eV lj 96.8657939108
energy eV metal 1.0
energy eV real 23.0605481117
energy eV si 1.60217662772e-19
energy electron J 4.35974466891e-18
energy electron J/mol 2625499.64967
energy electron eV 27.21138602
energy electron hartree 1.0
energy electron kJ/mol 2625.49964967
energy electron kcal 1.04200398397e-21
energy electron kcal/mol 627.509476499
energy gromacs J 1.66053904043e-21
energy gromacs J/mol 1000.0
energy gromacs eV 0.0103642695299
energy gromacs hartree 0.000380879883235
energy gromacs kJ/mol 1.0
energy gromacs kcal 3.96878355743e-25
energy gromacs kcal/mol 0.239005736138
energy hartree J 4.35974466891e-18
energy hartree J/mol 2625499.64967
energy hartree au 1.0
energy hartree eV 27.21138602
energy hartree electron 1.0
energy hartree gromacs 2625.49964967
energy hartree kJ/mol 2625.49964967
energy hartree kcal 1.04200398397e-21
energy hartree kcal/mol 627.509476499
energy hartree lj 2635.85251024
energy hartree metal 27.21138602
energy hartree real 627.509476499
energy hartree si 4.35974466891e-18
energy kJ/mol J 1.66053904043e-21
energy kJ/mol J/mol 1000.0
energy kJ/mol au 0.000380879883235
energy kJ/mol eV 0.0103642695299
energy kJ/mol electron 0.000380879883235
energy kJ/mol gromacs 1.0
energy kJ/mol hartree 0.000380879883235
energy kJ/mol kcal 3.96878355743e-25
energy kJ/mol kcal/mol 0.239005736138
energy kJ/mol lj 1.00394319632
energy kJ/mol metal 0.0103642695299
energy kJ/mol real 0.239005736138
energy kJ/mol si 1.66053904043e-21
energy kcal J 4184.0
energy kcal J/mol 2.51966373457e+27
energy kcal au 9.59689229013e+20
energy kcal eV 2.61144740699e+22
energy kcal electron 9.59689229013e+20
energy kcal gromacs 2.51966373457e+24
energy kcal hartree 9.59689229013e+20
energy kcal kJ/mol 2.51966373457e+24
energy kcal kcal/mol 6.022140857e+23
energy kcal lj 2.52959926335e+24
energy kcal metal 2.61144740699e+22
energy kcal real 6.022140857e+23
energy kcal si 4184.0
energy kcal/mol J 6.94769534515e-21
energy kcal/mol J/mol 4184.0
energy kcal/mol au 0.00159360143145
energy kcal/mol eV 0.0433641037133
energy kcal/mol electron 0.00159360143145
energy kcal/mol gromacs 4.184
energy kcal/mol hartree 0.00159360143145
energy kcal/mol kJ/mol 4.184
energy kcal/mol kcal 1.66053904043e-24
energy kcal/mol lj 4.20049833342
energy kcal/mol metal 0.0433641037133
energy kcal/mol real 1.0
energy kcal/mol si 6.94769534515e-21
energy lj J 1.65401692696e-21
energy lj J/mol 996.072291402
energy lj eV 0.0103235616994
energy lj hartree 0.000379383898042
energy lj kJ/mol 0.996072291402
energy lj kcal 3.95319533212e-25
energy lj kcal/mol 0.238066991253
energy metal J 1.60217662772e-19
energy metal J/mol 96485.3332992
energy metal eV 1.0
energy metal hartree 0.0367493224809
energy metal kJ/mol 96.4853332992
energy metal kcal 3.82929404331e-23
energy metal kcal/mol 23.0605481117
energy real J 6.94769534515e-21
energy real J/mol 4184.0
energy real eV 0.0433641037133
energy real hartree 0.00159360143145
energy real kJ/mol 4.184
energy real kcal 1.66053904043e-24
energy real kcal/mol 1.0
energy si J 1.0
energy si J/mol 6.022140857e+23
energy si eV 6.24150909893e+18
energy si hartree 2.29371230644e+17
energy si kJ/mol 6.022140857e+20
energy si kcal 0.000239005736138
energy si kcal/mol 1.43932620865e+20
force N au 12137802.804
force N dyn 100000.0
force N electron 12137802.804
force N gromacs 6.022140857e+11
force N lj 2.05862463951e+11
force N metal 624150909.893
force N pN 1e+12
force N real 14393262086.5
force N si 1.0
force au N 8.23872340116e-08
force au dyn 0.00823872340116
force au pN 82387.2340116
force dyn N 1e-05
force dyn au 121.37802804
force dyn electron 121.37802804
force dyn gromacs 6022140.857
force dyn lj 2058624.63951
force dyn metal 6241.50909893
force dyn pN 10000000.0
force dyn real 143932.620865
force dyn si 1e-05
force electron N 8.23872340116e-08
force electron dyn 0.00823872340116
force electron pN 82387.2340116
force gromacs N 1.66053904043e-12
force gromacs dyn 1.66053904043e-07
force gromacs pN 1.66053904043
force lj N 4.85761212029e-12
force lj dyn 4.85761212029e-07
force lj pN 4.85761212029
force metal N 1.60217662772e-09
force metal dyn 0.000160217662772
force metal pN 1602.17662772
force pN N 1e-12
force pN au 1.2137802804e-05
force pN dyn 1e-07
force pN electron 1.2137802804e-05
force pN gromacs 0.6022140857
force pN lj 0.205862463951
force pN metal 0.000624150909893
force pN real 0.0143932620865
force pN si 1e-12
force real N 6.94769534515e-11
force real dyn 6.94769534515e-06
force real pN 69.4769534515
force si N 1.0
force si dyn 100000.0
force si pN 1e+12
length A au 1.88972612546
length A bohr 1.88972612546
length A electron 1.88972612546
length A gromacs 0.1
length A lj 0.293685756241
length A m 1e-10
length A metal 1.0
length A nm 0.1
length A real 1.0
length A si 1e-10
length au A 0.52917721067
length au bohr 1.0
length au m 5.2917721067e-11
length au nm 0.052917721067
length bohr A 0.52917721067
length bohr au 1.0
length bohr electron 1.0
length bohr gromacs 0.052917721067
length bohr lj 0.155411809301
length bohr m 5.2917721067e-11
length bohr metal 0.52917721067
length bohr nm 0.052917721067
length bohr real 0.52917721067
length bohr si 5.2917721067e-11
length electron A 0.52917721067
length electron bohr 1.0
length electron m 5.2917721067e-11
length electron nm 0.052917721067
length gromacs A 10.0
length gromacs bohr 18.8972612546
length gromacs m 1e-09
length gromacs nm 1.0
length lj A 3.405
length lj bohr 6.43451745718
length lj m 3.405e-10
length lj nm 0.3405
length m A 10000000000.0
length m au 18897261254.6
length m bohr 18897261254.6
length m electron 18897261254.6
length m gromacs 1000000000.0
length m lj 2936857562.41
length m metal 10000000000.0
length m nm 1000000000.0
length m real 10000000000.0
length m si 1.0
length metal A 1.0
length metal bohr 1.88972612546
length metal m 1e-10
length metal nm 0.1
length nm A 10.0
length nm au 18.8972612546
length nm bohr 18.8972612546
length nm electron 18.8972612546
length nm gromacs 1.0
length nm lj 2.93685756241
length nm m 1e-09
length nm metal 10.0
length nm real 10.0
length nm si 1e-09
length real A 1.0
length real bohr 1.88972612546
length real m 1e-10
length real nm 0.1
length si A 10000000000.0
length si bohr 18897261254.6
length si m 1.0
length si nm 1000000000.0
mass au g 9.10938291e-28
mass au g/mol 0.000548579870044
mass au kg 9.10938291e-31
mass electron g 1.66053904043e-24
mass electron g/mol 1.0
mass electron kg 1.66053904043e-27
mass g au 1.09776920114e+27
mass g electron 6.022140857e+23
mass g g/mol 6.022140857e+23
mass g gromacs 6.022140857e+23
mass g kg 0.001
mass g lj 1.5074949577e+22
mass g metal 6.022140857e+23
mass g real 6.022140857e+23
mass g si 0.001
mass g/mol au 1822.88861587
mass g/mol electron 1.0
mass g/mol g 1.66053904043e-24
mass g/mol gromacs 1.0
mass g/mol kg 1.66053904043e-27
mass g/mol lj 0.025032542305
mass g/mol metal 1.0
mass g/mol real 1.0
mass g/mol si 1.66053904043e-27
mass gromacs g 1.66053904043e-24
mass gromacs g/mol 1.0
mass gromacs kg 1.66053904043e-27
mass kg au 1.09776920114e+30
mass kg electron 6.022140857e+26
mass kg g 1000.0
mass kg g/mol 6.022140857e+26
mass kg gromacs 6.022140857e+26
mass kg lj 1.5074949577e+25
mass kg metal 6.022140857e+26
mass kg real 6.022140857e+26
mass kg si 1.0
mass lj g 6.6335213587e-23
mass lj g/mol 39.948
mass lj kg 6.6335213587e-26
mass metal g 1.66053904043e-24
mass metal g/mol 1.0
mass metal kg 1.66053904043e-27
mass real g 1.66053904043e-24
mass real g/mol 1.0
mass real kg 1.66053904043e-27
mass si g 1000.0
mass si g/mol 6.022140857e+26
mass si kg 1.0
pressure Pa atm 9.86923266716e-06
pressure Pa au 3.3989309588e-14
pressure Pa bar 1e-05
pressure Pa electron 3.3989309588e-14
pressure Pa gromacs 6.022140857e-07
pressure Pa lj 2.3867745536e-08
pressure Pa metal 6.24150909893e-12
pressure Pa real 1.43932620865e-10
pressure Pa si 1.0
pressure atm Pa 101325.0
pressure atm au 3.44396679401e-09
pressure atm bar 1.01325
pressure atm electron 3.44396679401e-09
pressure atm gromacs 0.0610193422336
pressure atm lj 0.00241839931644
pressure atm metal 6.32420909449e-07
pressure atm real 1.45839728092e-05
pressure atm si 101325.0
pressure au Pa 2.94210153757e+13
pressure au atm 290362846.047
pressure au bar 294210153.757
pressure bar Pa 100000.0
pressure bar atm 0.986923266716
pressure bar au 3.3989309588e-09
pressure bar electron 3.3989309588e-09
pressure bar gromacs 0.06022140857
pressure bar lj 0.0023867745536
pressure bar metal 6.24150909893e-07
pressure bar real 1.43932620865e-05
pressure bar si 100000.0
pressure electron Pa 2.94210153757e+13
pressure electron atm 290362846.047
pressure electron bar 294210153.757
pressure gromacs Pa 1660539.04043
pressure gromacs atm 16.3882461429
pressure gromacs bar 16.6053904043
pressure lj Pa 41897547.403
pressure lj atm 413.496643504
pressure lj bar 418.97547403
pressure metal Pa 1.60217662772e+11
pressure metal atm 1581225.39129
pressure metal bar 1602176.62772
pressure real Pa 6947695345.15
pressure real atm 68568.4218618
pressure real bar 69476.9534515
pressure si Pa 1.0
pressure si atm 9.86923266716e-06
pressure si bar 1e-05
temperature K au 3.16681050119e-06
temperature K electron 0.999998472026
temperature K gromacs 1.00000000739
temperature K lj 0.00834724540902
temperature K metal 1.0
temperature K real 1.00000000739
temperature K si 1.0
temperature au K 315775.130727
temperature electron K 1.00000152798
temperature gromacs K 0.999999992609
temperature lj K 119.8
temperature metal K 1.0
temperature real K 0.999999992609
temperature si K 1.0
time au fs 0.0241888423521
time au ms 2.41888423521e-14
time au ns 2.41888423521e-08
time au ps 2.41888423521e-05
time au s 2.41888423521e-17
time au us 2.41888423521e-11
time electron fs 1.03274987345
time electron ms 1.03274987345e-12
time electron ns 1.03274987345e-06
time electron ps 0.00103274987345
time electron s 1.03274987345e-15
time electron us 1.03274987345e-09
time fs au 41.3413748968
time fs electron 0.968288668638
time fs gromacs 0.001
time fs lj 0.000463746657817
time fs metal 0.0982269480841
time fs ms 1e-12
time fs ns 1e-06
time fs ps 0.001
time fs real 0.0204548282809
time fs s 1e-15
time fs si 1e-15
time fs us 1e-09
time gromacs fs 1000.0
time gromacs ms 1e-09
time gromacs ns 0.001
time gromacs ps 1.0
time gromacs s 1e-12
time gromacs us 1e-06
time lj fs 2156.34977232
time lj ms 2.15634977232e-09
time lj ns 0.00215634977232
time lj ps 2.15634977232
time lj s 2.15634977232e-12
time lj us 2.15634977232e-06
time metal fs 10.1805056505
time metal ms 1.01805056505e-11
time metal ns 1.01805056505e-05
time metal ps 0.0101805056505
time metal s 1.01805056505e-14
time metal us 1.01805056505e-08
time ms au 4.13413748968e+13
time ms electron 9.68288668638e+11
time ms fs 1e+12
time ms gromacs 1000000000.0
time ms lj 463746657.817
time ms metal 98226948084.1
time ms ns 1000000.0
time ms ps 1000000000.0
time ms real 20454828280.9
time ms s 0.001
time ms si 0.001
time ms us 1000.0
time ns au 41341374.8968
time ns electron 968288.668638
time ns fs 1000000.0
time ns gromacs 1000.0
time ns lj 463.746657817
time ns metal 98226.9480841
time ns ms 1e-06
time ns ps 1000.0
time ns real 20454.8282809
time ns s 1e-09
time ns si 1e-09
time ns us 0.001
time ps au 41341.3748968
time ps electron 968.288668638
time ps fs 1000.0
time ps gromacs 1.0
time ps lj 0.463746657817
time ps metal 98.2269480841
time ps ms 1e-09
time ps ns 0.001
time ps real 20.4548282809
time ps s 1e-12
time ps si 1e-12
time ps us 1e-06
time real fs 48.8882129084
time real ms 4.88882129084e-11
time real ns 4.88882129084e-05
time real ps 0.0488882129084
time real s 4.88882129084e-14
time real us 4.88882129084e-08
time s au 4.13413748968e+16
time s electron 9.68288668638e+14
time s fs 1e+15
time s gromacs 1e+12
time s lj 4.63746657817e+11
time s metal 9.82269480841e+13
time s ms 1000.0
time s ns 1000000000.0
time s ps 1e+12
time s real 2.04548282809e+13
time s si 1.0
time s us 1000000.0
time si fs 1e+15
time si ms 1000.0
time si ns 1000000000.0
time si ps 1e+12
time si s 1.0
time si us 1000000.0
time us au 41341374896.8
time us electron 968288668.638
time us fs 1000000000.0
time us gromacs 1000000.0
time us lj 463746.657817
time us metal 98226948.0841
time us ms 0.001
time us ns 1000.0
time us ps 1000000.0
time us real 20454828.2809
time us s 1e-06
time us si 1e-06
velocity A/fs A/ps 1000.0
velocity A/fs au 0.0457102873374
velocity A/fs electron 1.95161441692
velocity A/fs gromacs 100.0
velocity A/fs lj 633.289213604
velocity A/fs m/s 100000.0
velocity A/fs metal 10.1805056505
velocity A/fs nm/ps 100.0
velocity A/fs real 48.8882129084
velocity A/fs si 100000.0
velocity A/ps A/fs 0.001
velocity A/ps au 4.57102873374e-05
velocity A/ps electron 0.00195161441692
velocity A/ps gromacs 0.1
velocity A/ps lj 0.633289213604
velocity A/ps m/s 100.0
velocity A/ps metal 0.0101805056505
velocity A/ps nm/ps 0.1
velocity A/ps real 0.0488882129084
velocity A/ps si 100.0
velocity au A/fs 21.8769134532
velocity au A/ps 21876.9134532
velocity au m/s 2187691.34532
velocity au nm/ps 2187.69134532
velocity electron A/fs 0.512396296793
velocity electron A/ps 512.396296793
velocity electron m/s 51239.6296793
velocity electron nm/ps 51.2396296793
velocity gromacs A/fs 0.01
velocity gromacs A/ps 10.0
velocity gromacs m/s 1000.0
velocity gromacs nm/ps 1.0
velocity lj A/fs 0.00157905736987
velocity lj A/ps 1.57905736987
velocity lj m/s 157.905736987
velocity lj nm/ps 0.157905736987
velocity m/s A/fs 1e-05
velocity m/s A/ps 0.01
velocity m/s au 4.57102873374e-07
velocity m/s electron 1.95161441692e-05
velocity m/s gromacs 0.001
velocity m/s lj 0.00633289213604
velocity m/s metal 0.000101805056505
velocity m/s nm/ps 0.001
velocity m/s real 0.000488882129084
velocity m/s si 1.0
velocity metal A/fs 0.0982269480841
velocity metal A/ps 98.2269480841
velocity metal m/s 9822.69480841
velocity metal nm/ps 9.82269480841
velocity nm/ps A/fs 0.01
velocity nm/ps A/ps 10.0
velocity nm/ps au 0.000457102873374
velocity nm/ps electron 0.0195161441692
velocity nm/ps gromacs 1.0
velocity nm/ps lj 6.33289213604
velocity nm/ps m/s 1000.0
velocity nm/ps metal 0.101805056505
velocity nm/ps real 0.488882129084
velocity nm/ps si 1000.0
velocity real A/fs 0.0204548282809
velocity real A/ps 20.4548282809
velocity real m/s 2045.48282809
velocity real nm/ps 2.04548282809
velocity si A/fs 1e-05
velocity si A/ps 0.01
velocity si m/s 1.0
velocity si nm/ps 0.001
